{
    "key": "group_59b611f3cda11",
    "title": "Event Detail",
    "fields": [
        {
            "key": "field_561b9b9ae30f2",
            "label": "Event Date",
            "name": "event_date",
            "type": "date_picker",
            "instructions": "",
            "required": 1,
            "conditional_logic": 0,
            "wrapper": {
                "width": "",
                "class": "",
                "id": ""
            },
            "first_day": 1,
            "return_format": "d\/m\/Y",
            "display_format": "d\/m\/Y"
        },
        {
            "key": "field_561b9bbde30f3",
            "label": "Event Time",
            "name": "event_time",
            "type": "text",
            "instructions": "eg. 11:00 - 15:00",
            "required": 0,
            "conditional_logic": 0,
            "wrapper": {
                "width": "",
                "class": "",
                "id": ""
            },
            "default_value": "",
            "placeholder": "",
            "prepend": "",
            "append": "",
            "formatting": "html",
            "maxlength": ""
        },
        {
            "key": "field_561b9bc9e30f4",
            "label": "Event Address",
            "name": "event_address",
            "type": "text",
            "instructions": "please type full adress",
            "required": 0,
            "conditional_logic": 0,
            "wrapper": {
                "width": "",
                "class": "",
                "id": ""
            },
            "default_value": "",
            "placeholder": "",
            "prepend": "",
            "append": "",
            "formatting": "html",
            "maxlength": ""
        },
        {
            "key": "field_561b9bdae30f5",
            "label": "Event Link",
            "name": "event_link",
            "type": "text",
            "instructions": "leave unfilled if event doesnt have a link",
            "required": 0,
            "conditional_logic": 0,
            "wrapper": {
                "width": "",
                "class": "",
                "id": ""
            },
            "default_value": "",
            "placeholder": "",
            "prepend": "",
            "append": "",
            "formatting": "html",
            "maxlength": ""
        }
    ],
    "location": [
        [
            {
                "param": "post_type",
                "operator": "==",
                "value": "event"
            }
        ]
    ],
    "menu_order": 0,
    "position": "normal",
    "style": "default",
    "label_placement": "top",
    "instruction_placement": "label",
    "hide_on_screen": [
        "the_content"
    ],
    "active": true,
    "description": "",
    "modified": 1588660555
}