{
    "key": "group_5f126e52a1bde",
    "title": "Partner Campaigns",
    "fields": [
        {
            "key": "field_5f2278f331bdf",
            "label": "Pronto Code",
            "name": "partner_pronto_code",
            "type": "text",
            "instructions": "",
            "required": 1,
            "conditional_logic": 0,
            "wrapper": {
                "width": "",
                "class": "",
                "id": ""
            },
            "default_value": "",
            "placeholder": "",
            "prepend": "",
            "append": "",
            "maxlength": ""
        },
        {
            "key": "field_5f15134d8cf94",
            "label": "Discount",
            "name": "partner_discount",
            "type": "number",
            "instructions": "",
            "required": 1,
            "conditional_logic": 0,
            "wrapper": {
                "width": "15",
                "class": "",
                "id": ""
            },
            "default_value": "",
            "placeholder": "",
            "prepend": "",
            "append": "%",
            "min": "",
            "max": 100,
            "step": ""
        },
        {
            "key": "field_619f2b34a36ec",
            "label": "Departments",
            "name": "partner_departments",
            "type": "textarea",
            "instructions": "Enter all the department options here  (Each one in a new line).",
            "required": 1,
            "conditional_logic": 0,
            "wrapper": {
                "width": "",
                "class": "",
                "id": ""
            },
            "default_value": "",
            "placeholder": "",
            "maxlength": "",
            "rows": "",
            "new_lines": ""
        },
        {
            "key": "field_5f6acadb433e4",
            "label": "Campaign",
            "name": "weber_campaign",
            "type": "campaign_generator",
            "instructions": "",
            "required": 0,
            "conditional_logic": 0,
            "wrapper": {
                "width": "",
                "class": "",
                "id": ""
            }
        }
    ],
    "location": [
        [
            {
                "param": "post_type",
                "operator": "==",
                "value": "partner"
            }
        ]
    ],
    "menu_order": 0,
    "position": "normal",
    "style": "default",
    "label_placement": "top",
    "instruction_placement": "label",
    "hide_on_screen": [
        "the_content"
    ],
    "active": 1,
    "description": "",
    "modified": 1637832651
}