{
    "key": "group_5e23ebbd9c616",
    "title": "Page Builder",
    "fields": [
        {
            "key": "field_5e23ebcd49d70",
            "label": "Builder",
            "name": "page_builder",
            "type": "flexible_content",
            "instructions": "",
            "required": 0,
            "conditional_logic": 0,
            "wrapper": {
                "width": "",
                "class": "",
                "id": ""
            },
            "layouts": {
                "layout_5e23ebd6e9672": {
                    "key": "layout_5e23ebd6e9672",
                    "name": "basic_content",
                    "label": "Basic Content",
                    "display": "block",
                    "sub_fields": [
                        {
                            "key": "field_5e23ebe749d71",
                            "label": "Editor",
                            "name": "editor",
                            "type": "clone",
                            "instructions": "",
                            "required": 0,
                            "conditional_logic": 0,
                            "wrapper": {
                                "width": "",
                                "class": "",
                                "id": ""
                            },
                            "clone": [
                                "group_5e23eab0ebade"
                            ],
                            "display": "seamless",
                            "layout": "block",
                            "prefix_label": 0,
                            "prefix_name": 0
                        }
                    ],
                    "min": "",
                    "max": ""
                },
                "layout_5e23ed9e4edda": {
                    "key": "layout_5e23ed9e4edda",
                    "name": "feature_tiles",
                    "label": "Feature Tiles",
                    "display": "block",
                    "sub_fields": [
                        {
                            "key": "field_5e23edac4eddb",
                            "label": "Feature Tiles",
                            "name": "feature_tiles",
                            "type": "clone",
                            "instructions": "",
                            "required": 0,
                            "conditional_logic": 0,
                            "wrapper": {
                                "width": "",
                                "class": "",
                                "id": ""
                            },
                            "clone": [
                                "group_5e23ecded14c9"
                            ],
                            "display": "seamless",
                            "layout": "block",
                            "prefix_label": 0,
                            "prefix_name": 0
                        }
                    ],
                    "min": "",
                    "max": ""
                },
                "layout_5e256d7e673fb": {
                    "key": "layout_5e256d7e673fb",
                    "name": "image_text_alternating_rows",
                    "label": "Image-Text Alternating Rows",
                    "display": "block",
                    "sub_fields": [
                        {
                            "key": "field_5e256d8e673fc",
                            "label": "Image-Text Alternating Rows",
                            "name": "image_text_alternating_rows",
                            "type": "clone",
                            "instructions": "",
                            "required": 0,
                            "conditional_logic": 0,
                            "wrapper": {
                                "width": "",
                                "class": "",
                                "id": ""
                            },
                            "clone": [
                                "group_5e256d18cb190"
                            ],
                            "display": "seamless",
                            "layout": "block",
                            "prefix_label": 0,
                            "prefix_name": 0
                        }
                    ],
                    "min": "",
                    "max": ""
                },
                "layout_5e25893cfe1f9": {
                    "key": "layout_5e25893cfe1f9",
                    "name": "image_text_alternating_rows_full_width",
                    "label": "Image-Text Alternating Rows (Full Width)",
                    "display": "block",
                    "sub_fields": [
                        {
                            "key": "field_5e258951fe1fa",
                            "label": "Image-Text Alternating Rows (Full Width)",
                            "name": "image_text_alternating_rows_full_width",
                            "type": "clone",
                            "instructions": "",
                            "required": 0,
                            "conditional_logic": 0,
                            "wrapper": {
                                "width": "",
                                "class": "",
                                "id": ""
                            },
                            "clone": [
                                "group_5e25890f7e744"
                            ],
                            "display": "seamless",
                            "layout": "block",
                            "prefix_label": 0,
                            "prefix_name": 0
                        }
                    ],
                    "min": "",
                    "max": ""
                },
                "layout_5e258c406f790": {
                    "key": "layout_5e258c406f790",
                    "name": "content_columns",
                    "label": "Content Columns",
                    "display": "block",
                    "sub_fields": [
                        {
                            "key": "field_5e258c4b6f791",
                            "label": "Content Columns",
                            "name": "content_columns",
                            "type": "clone",
                            "instructions": "",
                            "required": 0,
                            "conditional_logic": 0,
                            "wrapper": {
                                "width": "",
                                "class": "",
                                "id": ""
                            },
                            "clone": [
                                "group_5e258b37ae868"
                            ],
                            "display": "seamless",
                            "layout": "block",
                            "prefix_label": 0,
                            "prefix_name": 0
                        }
                    ],
                    "min": "",
                    "max": ""
                },
                "layout_5e269892135a6": {
                    "key": "layout_5e269892135a6",
                    "name": "text_with_background_image",
                    "label": "Text with Background Image",
                    "display": "block",
                    "sub_fields": [
                        {
                            "key": "field_5e26989b135a7",
                            "label": "Text with Background Image",
                            "name": "text_with_background_image",
                            "type": "clone",
                            "instructions": "",
                            "required": 0,
                            "conditional_logic": 0,
                            "wrapper": {
                                "width": "",
                                "class": "",
                                "id": ""
                            },
                            "clone": [
                                "group_5e269807cf26a"
                            ],
                            "display": "seamless",
                            "layout": "block",
                            "prefix_label": 0,
                            "prefix_name": 0
                        }
                    ],
                    "min": "",
                    "max": ""
                },
                "layout_5e269be906d2a": {
                    "key": "layout_5e269be906d2a",
                    "name": "half_half_content",
                    "label": "Half & Half Content",
                    "display": "block",
                    "sub_fields": [
                        {
                            "key": "field_5e269bf306d2b",
                            "label": "Half & Half Content",
                            "name": "half_half_content",
                            "type": "clone",
                            "instructions": "",
                            "required": 0,
                            "conditional_logic": 0,
                            "wrapper": {
                                "width": "",
                                "class": "",
                                "id": ""
                            },
                            "clone": [
                                "group_5e269b3f91c20"
                            ],
                            "display": "seamless",
                            "layout": "block",
                            "prefix_label": 0,
                            "prefix_name": 0
                        }
                    ],
                    "min": "",
                    "max": ""
                },
                "layout_5e26a24cf2681": {
                    "key": "layout_5e26a24cf2681",
                    "name": "sliding_gallery",
                    "label": "Sliding Gallery",
                    "display": "block",
                    "sub_fields": [
                        {
                            "key": "field_5e26a252f2682",
                            "label": "Sliding Gallery",
                            "name": "sliding_gallery",
                            "type": "clone",
                            "instructions": "",
                            "required": 0,
                            "conditional_logic": 0,
                            "wrapper": {
                                "width": "",
                                "class": "",
                                "id": ""
                            },
                            "clone": [
                                "group_5e269ffe2daa6"
                            ],
                            "display": "seamless",
                            "layout": "block",
                            "prefix_label": 0,
                            "prefix_name": 0
                        }
                    ],
                    "min": "",
                    "max": ""
                },
                "layout_5e27d7cb279e4": {
                    "key": "layout_5e27d7cb279e4",
                    "name": "testimonial_slider",
                    "label": "Testimonial Slider",
                    "display": "block",
                    "sub_fields": [
                        {
                            "key": "field_5e27d7d5279e5",
                            "label": "Testimonial Slider",
                            "name": "testimonial_slider",
                            "type": "clone",
                            "instructions": "",
                            "required": 0,
                            "conditional_logic": 0,
                            "wrapper": {
                                "width": "",
                                "class": "",
                                "id": ""
                            },
                            "clone": [
                                "group_5e27d5a229935"
                            ],
                            "display": "seamless",
                            "layout": "block",
                            "prefix_label": 0,
                            "prefix_name": 0
                        }
                    ],
                    "min": "",
                    "max": ""
                },
                "layout_5e27f2bf189ba": {
                    "key": "layout_5e27f2bf189ba",
                    "name": "news_listing",
                    "label": "News Listing",
                    "display": "block",
                    "sub_fields": [
                        {
                            "key": "field_5e27f2c5189bb",
                            "label": "News Listing",
                            "name": "news_listing",
                            "type": "clone",
                            "instructions": "",
                            "required": 0,
                            "conditional_logic": 0,
                            "wrapper": {
                                "width": "",
                                "class": "",
                                "id": ""
                            },
                            "clone": [
                                "group_5e27f22bacbc2"
                            ],
                            "display": "seamless",
                            "layout": "block",
                            "prefix_label": 0,
                            "prefix_name": 0
                        }
                    ],
                    "min": "",
                    "max": ""
                },
                "layout_5e280606be4a7": {
                    "key": "layout_5e280606be4a7",
                    "name": "timeline",
                    "label": "Timeline",
                    "display": "block",
                    "sub_fields": [
                        {
                            "key": "field_5e28060fbe4a8",
                            "label": "Timeline",
                            "name": "timeline",
                            "type": "clone",
                            "instructions": "",
                            "required": 0,
                            "conditional_logic": 0,
                            "wrapper": {
                                "width": "",
                                "class": "",
                                "id": ""
                            },
                            "clone": [
                                "group_5e28055aeec12"
                            ],
                            "display": "seamless",
                            "layout": "block",
                            "prefix_label": 0,
                            "prefix_name": 0
                        }
                    ],
                    "min": "",
                    "max": ""
                },
                "layout_5e282e6fcb47d": {
                    "key": "layout_5e282e6fcb47d",
                    "name": "call_to_action",
                    "label": "Call to Action",
                    "display": "block",
                    "sub_fields": [
                        {
                            "key": "field_5e282e73cb47e",
                            "label": "Call to Action",
                            "name": "call_to_action",
                            "type": "clone",
                            "instructions": "",
                            "required": 0,
                            "conditional_logic": 0,
                            "wrapper": {
                                "width": "",
                                "class": "",
                                "id": ""
                            },
                            "clone": [
                                "group_5e282dba54fa5"
                            ],
                            "display": "seamless",
                            "layout": "block",
                            "prefix_label": 0,
                            "prefix_name": 0
                        }
                    ],
                    "min": "",
                    "max": ""
                },
                "layout_5e288005ab793": {
                    "key": "layout_5e288005ab793",
                    "name": "gravity_form",
                    "label": "Gravity Form",
                    "display": "block",
                    "sub_fields": [
                        {
                            "key": "field_5e288008ab794",
                            "label": "Gravity Form",
                            "name": "gravity_form",
                            "type": "clone",
                            "instructions": "",
                            "required": 0,
                            "conditional_logic": 0,
                            "wrapper": {
                                "width": "",
                                "class": "",
                                "id": ""
                            },
                            "clone": [
                                "group_5e287fc0070c8"
                            ],
                            "display": "seamless",
                            "layout": "block",
                            "prefix_label": 0,
                            "prefix_name": 0
                        }
                    ],
                    "min": "",
                    "max": ""
                },
                "layout_5e2832c6aa9fd": {
                    "key": "layout_5e2832c6aa9fd",
                    "name": "team_cards",
                    "label": "Team Cards",
                    "display": "block",
                    "sub_fields": [
                        {
                            "key": "field_5e2832d1aa9fe",
                            "label": "Team Cards",
                            "name": "team_cards",
                            "type": "clone",
                            "instructions": "",
                            "required": 0,
                            "conditional_logic": 0,
                            "wrapper": {
                                "width": "",
                                "class": "",
                                "id": ""
                            },
                            "clone": [
                                "group_5e2832146402e"
                            ],
                            "display": "seamless",
                            "layout": "block",
                            "prefix_label": 0,
                            "prefix_name": 0
                        }
                    ],
                    "min": "",
                    "max": ""
                },
                "layout_5e286e688cc2e": {
                    "key": "layout_5e286e688cc2e",
                    "name": "logos_gallery",
                    "label": "Logos Gallery",
                    "display": "block",
                    "sub_fields": [
                        {
                            "key": "field_5e286e6d8cc2f",
                            "label": "Logos Gallery",
                            "name": "logos_gallery",
                            "type": "clone",
                            "instructions": "",
                            "required": 0,
                            "conditional_logic": 0,
                            "wrapper": {
                                "width": "",
                                "class": "",
                                "id": ""
                            },
                            "clone": [
                                "group_5e286df8bad83"
                            ],
                            "display": "seamless",
                            "layout": "block",
                            "prefix_label": 0,
                            "prefix_name": 0
                        }
                    ],
                    "min": "",
                    "max": ""
                },
                "layout_5e2a9ae67374e": {
                    "key": "layout_5e2a9ae67374e",
                    "name": "maps_contact_1",
                    "label": "Maps & Contact 1",
                    "display": "block",
                    "sub_fields": [
                        {
                            "key": "field_5e2a9ae87374f",
                            "label": "Maps & Contact",
                            "name": "maps_contact",
                            "type": "clone",
                            "instructions": "",
                            "required": 0,
                            "conditional_logic": 0,
                            "wrapper": {
                                "width": "",
                                "class": "",
                                "id": ""
                            },
                            "clone": [
                                "group_5e299c478e15d"
                            ],
                            "display": "seamless",
                            "layout": "block",
                            "prefix_label": 0,
                            "prefix_name": 0
                        }
                    ],
                    "min": "",
                    "max": ""
                },
                "layout_5e2a9b0973750": {
                    "key": "layout_5e2a9b0973750",
                    "name": "maps_contact_2",
                    "label": "Maps & Contact 2",
                    "display": "block",
                    "sub_fields": [
                        {
                            "key": "field_5e2a9b1073751",
                            "label": "Maps & Contact",
                            "name": "maps_contact",
                            "type": "clone",
                            "instructions": "",
                            "required": 0,
                            "conditional_logic": 0,
                            "wrapper": {
                                "width": "",
                                "class": "",
                                "id": ""
                            },
                            "clone": [
                                "group_5e299af9b33b7"
                            ],
                            "display": "seamless",
                            "layout": "block",
                            "prefix_label": 0,
                            "prefix_name": 0
                        }
                    ],
                    "min": "",
                    "max": ""
                },
                "layout_5e2aaf255c352": {
                    "key": "layout_5e2aaf255c352",
                    "name": "text_gallery",
                    "label": "Text & Gallery",
                    "display": "block",
                    "sub_fields": [
                        {
                            "key": "field_5e2aaf2b5c353",
                            "label": "Text & Gallery",
                            "name": "text_gallery",
                            "type": "clone",
                            "instructions": "",
                            "required": 0,
                            "conditional_logic": 0,
                            "wrapper": {
                                "width": "",
                                "class": "",
                                "id": ""
                            },
                            "clone": [
                                "group_5e2aada67cb44"
                            ],
                            "display": "seamless",
                            "layout": "block",
                            "prefix_label": 0,
                            "prefix_name": 0
                        }
                    ],
                    "min": "",
                    "max": ""
                },
                "layout_5e327127accac": {
                    "key": "layout_5e327127accac",
                    "name": "rectangle_hover_blocks",
                    "label": "Rectangle Hover Blocks",
                    "display": "block",
                    "sub_fields": [
                        {
                            "key": "field_5e32712baccad",
                            "label": "Rectangle Hover Blocks",
                            "name": "rectangle_hover_blocks",
                            "type": "clone",
                            "instructions": "",
                            "required": 0,
                            "conditional_logic": 0,
                            "wrapper": {
                                "width": "",
                                "class": "",
                                "id": ""
                            },
                            "clone": [
                                "group_5e1e5d6da2438"
                            ],
                            "display": "seamless",
                            "layout": "block",
                            "prefix_label": 0,
                            "prefix_name": 0
                        }
                    ],
                    "min": "",
                    "max": ""
                }
            },
            "button_label": "Add +",
            "min": "",
            "max": ""
        }
    ],
    "location": [
        [
            {
                "param": "page_template",
                "operator": "==",
                "value": "page-t-blocks.php"
            }
        ]
    ],
    "menu_order": 0,
    "position": "normal",
    "style": "default",
    "label_placement": "top",
    "instruction_placement": "label",
    "hide_on_screen": [
        "the_content"
    ],
    "active": 1,
    "description": "",
    "modified": 1580364124
}